CodeEditingAction 1639664540619 MarsRover.java ADD int planetX FIELD
CodeEditingAction 1639664540621 MarsRover.java ADD int planetY FIELD
CodeEditingAction 1639664540621 MarsRover.java ADD MarsRover mars FIELD
CodeEditingAction 1639664574725 MarsRover.java RENAME planetX=>int PlanetX FIELD
CodeEditingAction 1639664576232 MarsRover.java RENAME planetY=>int PlanetY FIELD
CodeEditingAction 1639664681511 MarsRover.java ADD String PlanetObstacle FIELD
CodeEditingAction 1639664691036 MarsRover.java ADD List<String> planetObstacle FIELD
CodeEditingAction 1639664694046 MarsRover.java RENAME planetObstacle=>List<String> PlanetObstacle FIELD
CodeEditingAction 1639664703568 MarsRover.java RENAME PlanetObstacle=>List<String> PlanetObstacles FIELD
EditAction 1639664959170 FrameTest.java 1402 7 25 8
EditAction 1639664965941 GameTest.java 5277 9 122 10
TestEditingAction 1639664983716 MarsRoverTest.java RENAME test()=>void testplanetContainsObstacleAt() METHOD RENAME test()=>void testplanetContainsObstacleAt() METHOD
EditAction 1639665106940 MarsRoverTest.java 196 1 2 0
EditAction 1639665106949 MarsRoverTest.java 196 1 2 0
EditAction 1639665107104 MarsRoverTest.java 196 1 2 0
EditAction 1639665108384 GameTest.java 5277 9 122 10
EditAction 1639665108395 MarsRoverTest.java 196 1 2 0
EditAction 1639665108399 MarsRoverTest.java 196 1 2 0
EditAction 1639665108422 MarsRoverTest.java 196 1 2 0
EditAction 1639665108530 GameTest.java 5277 9 122 10
EditAction 1639665109088 MarsRoverTest.java 196 1 2 0
EditAction 1639665109094 MarsRoverTest.java 196 1 2 0
EditAction 1639665109591 MarsRoverTest.java 196 1 2 0
TestEditingAction 1639665111366 MarsRoverTest.java ADD import java.awt.List IMPORT ADD import java.awt.List IMPORT
TestEditingAction 1639665129061 MarsRoverTest.java ADD import java.util.ArrayList IMPORT ADD import java.util.ArrayList IMPORT
EditAction 1639665132914 GameTest.java 5277 9 122 10
EditAction 1639665132923 MarsRoverTest.java 196 1 2 0
EditAction 1639665132928 MarsRoverTest.java 196 1 2 0
EditAction 1639665132940 MarsRoverTest.java 196 1 2 0
EditAction 1639665133050 GameTest.java 5277 9 122 10
EditAction 1639665137091 MarsRoverTest.java 196 1 2 0
EditAction 1639665137098 MarsRoverTest.java 196 1 2 0
EditAction 1639665137205 MarsRoverTest.java 196 1 2 0
EditAction 1639665147900 GameTest.java 5277 9 122 10
EditAction 1639665147909 MarsRoverTest.java 196 1 2 0
EditAction 1639665147914 MarsRoverTest.java 196 1 2 0
EditAction 1639665147925 MarsRoverTest.java 196 1 2 0
EditAction 1639665148031 GameTest.java 5277 9 122 10
EditAction 1639665178641 MarsRoverTest.java 196 1 2 0
EditAction 1639665178648 MarsRoverTest.java 196 1 2 0
EditAction 1639665178804 MarsRoverTest.java 196 1 2 0
EditAction 1639665183970 MarsRoverTest.java 196 1 2 0
EditAction 1639665183976 MarsRoverTest.java 196 1 2 0
EditAction 1639665184132 MarsRoverTest.java 196 1 2 0
TestEditingAction 1639665886134 MarsRoverTest.java RENAME import java.awt.List=>import java.awt.* IMPORT RENAME import java.awt.List=>import java.awt.* IMPORT
TestEditingAction 1639665897153 MarsRoverTest.java RENAME import java.awt.*=>import java.awt.List IMPORT RENAME import java.awt.*=>import java.awt.List IMPORT
EditAction 1639665912409 GameTest.java 5277 9 122 10
EditAction 1639665912416 MarsRoverTest.java 196 1 4 1
EditAction 1639665912421 MarsRoverTest.java 196 1 4 1
EditAction 1639665912426 MarsRoverTest.java 196 1 4 1
EditAction 1639665912437 MarsRoverTest.java 196 1 4 1
EditAction 1639665912549 GameTest.java 5277 9 122 10
EditAction 1639665912556 MarsRoverTest.java 196 1 4 1
EditAction 1639665913513 MarsRoverTest.java 196 1 4 1
EditAction 1639665913520 MarsRoverTest.java 196 1 4 1
EditAction 1639665913676 MarsRoverTest.java 196 1 4 1
EditAction 1639665914129 GameTest.java 5277 9 122 10
EditAction 1639665914134 MarsRoverTest.java 196 1 4 1
EditAction 1639665914139 MarsRoverTest.java 196 1 4 1
EditAction 1639665914144 MarsRoverTest.java 196 1 4 1
EditAction 1639665914156 MarsRoverTest.java 196 1 4 1
EditAction 1639665914732 GameTest.java 5277 9 122 10
EditAction 1639665914738 MarsRoverTest.java 196 1 4 1
EditAction 1639665971178 GameTest.java 5277 9 122 10
EditAction 1639665971185 MarsRoverTest.java 196 1 5 1
EditAction 1639665971190 MarsRoverTest.java 196 1 5 1
EditAction 1639665971200 MarsRoverTest.java 196 1 5 1
EditAction 1639665971307 GameTest.java 5277 9 122 10
EditAction 1639665972258 MarsRoverTest.java 196 1 5 1
EditAction 1639665972264 MarsRoverTest.java 196 1 5 1
EditAction 1639665972422 MarsRoverTest.java 196 1 5 1
EditAction 1639665973193 GameTest.java 5277 9 122 10
EditAction 1639665973200 MarsRoverTest.java 196 1 5 1
EditAction 1639665973205 MarsRoverTest.java 196 1 5 1
EditAction 1639665973217 MarsRoverTest.java 196 1 5 1
EditAction 1639665973479 GameTest.java 5277 9 122 10
EditAction 1639665973907 MarsRoverTest.java 196 1 5 1
EditAction 1639665973912 MarsRoverTest.java 196 1 5 1
EditAction 1639665974537 MarsRoverTest.java 196 1 5 1
TestEditingAction 1639665989309 MarsRoverTest.java RENAME import java.util.ArrayList=>import java.util.* IMPORT RENAME import java.util.ArrayList=>import java.util.* IMPORT
TestEditingAction 1639665999829 MarsRoverTest.java RENAME import java.util.*=>import java.util.List IMPORT RENAME import java.util.*=>import java.util.List IMPORT
TestEditingAction 1639666011721 MarsRoverTest.java REMOVE import org.junit.Assert.* IMPORT REMOVE import org.junit.Assert.* IMPORT
TestEditingAction 1639666016859 MarsRoverTest.java REMOVE import org.junit.Assert.* IMPORT REMOVE import org.junit.Assert.* IMPORT
TestEditingAction 1639666019868 MarsRoverTest.java ADD import java.util.List IMPORT ADD import java.util.List IMPORT
TestEditingAction 1639666019869 MarsRoverTest.java ADD import org.junit.Test IMPORT ADD import org.junit.Test IMPORT
TestEditingAction 1639666026883 MarsRoverTest.java REMOVE import org.junit.Assert.* IMPORT REMOVE import org.junit.Assert.* IMPORT
TestEditingAction 1639666027889 MarsRoverTest.java ADD import java.util.ArrayList IMPORT ADD import java.util.ArrayList IMPORT
TestEditingAction 1639666043914 MarsRoverTest.java REMOVE import org.junit.Assert.* IMPORT REMOVE import org.junit.Assert.* IMPORT
TestEditingAction 1639666045920 MarsRoverTest.java ADD import java.util.List IMPORT ADD import java.util.List IMPORT
CodeEditingAction 1639666069693 MarsRover.java CHANGE MarsRover.java CLASS
EditAction 1639666069694 MarsRover.java 2718 3 6 0
TestEditingAction 1639666070479 MarsRoverTest.java CHANGE MarsRoverTest.java CLASS CHANGE MarsRoverTest.java CLASS
EditAction 1639666070546 MarsRover.java 2718 3 6 0
EditAction 1639666070550 MarsRoverTest.java 481 1 5 1
EditAction 1639666071212 MarsRover.java 2718 3 6 0
TestFailureAction 1639666071502 mra.java FAIL
TestEditingAction 1639666083097 MarsRoverTest.java CHANGE MarsRoverTest.java CLASS CHANGE MarsRoverTest.java CLASS
EditAction 1639666083170 MarsRoverTest.java 454 1 4 1
TestFailureAction 1639666084060 mra.java FAIL
CodeEditingAction 1639666108655 MarsRover.java ADD import java.util.ArrayList IMPORT
CodeEditingAction 1639666125481 MarsRover.java CHANGE MarsRover.java CLASS
EditAction 1639666125556 MarsRover.java 2765 3 6 0
EditAction 1639666125943 MarsRover.java 2765 3 6 0
TestFailureAction 1639666126440 mra.java FAIL
CodeEditingAction 1639666927095 MarsRover.java CHANGE MarsRover.java CLASS
EditAction 1639666927095 MarsRover.java 2894 3 7 0
EditAction 1639666927167 MarsRover.java 2894 3 7 0
EditAction 1639666927550 MarsRover.java 2894 3 7 0
TestFailureAction 1639666928040 mra.java FAIL
EditAction 1639666953254 Game.java 3243 10 15 0
CodeEditingAction 1639666984632 MarsRover.java CHANGE MarsRover.java CLASS
EditAction 1639666984715 MarsRover.java 2810 3 6 0
EditAction 1639666985052 MarsRover.java 2810 3 6 0
TestFailureAction 1639666986191 mra.java FAIL
CodeEditingAction 1639666998635 MarsRover.java CHANGE MarsRover.java CLASS
EditAction 1639666998714 MarsRover.java 2805 3 6 0
EditAction 1639666999093 MarsRover.java 2805 3 6 0
TestPassAction 1639666999609 mra.java OK
CodeEditingAction 1639667622276 MarsRover.java ADD String rover FIELD
TestCreationAction 1639667688181 MarsRoverTest.java ADD void testplanetContainsObstacleAt()/2 METHOD ADD void testplanetContainsObstacleAt()/2 METHOD
TestCreationAction 1639667698694 MarsRoverTest.java RENAME testplanetContainsObstacleAt()/2=>void test() METHOD RENAME testplanetContainsObstacleAt()/2=>void test() METHOD
TestCreationAction 1639667701702 MarsRoverTest.java RENAME testplanetContainsObstacleAt()=>void testPlanetContainsObstacleAt() METHOD RENAME testplanetContainsObstacleAt()=>void testPlanetContainsObstacleAt() METHOD
TestCreationAction 1639667706712 MarsRoverTest.java RENAME test()=>void testRover() METHOD RENAME test()=>void testRover() METHOD
TestCreationAction 1639667715727 MarsRoverTest.java RENAME testRover()=>void testLandingRover() METHOD RENAME testRover()=>void testLandingRover() METHOD
CodeEditingAction 1639667905106 MarsRover.java CHANGE MarsRover.java CLASS
TestEditingAction 1639667905118 MarsRoverTest.java CHANGE MarsRoverTest.java CLASS CHANGE MarsRoverTest.java CLASS
EditAction 1639667905190 MarsRover.java 2911 3 8 0
EditAction 1639667905194 MarsRoverTest.java 712 2 8 2
EditAction 1639667905563 MarsRover.java 2911 3 8 0
TestPassAction 1639667906062 mra.java OK
TestCreationAction 1639668392026 MarsRoverTest.java ADD void testLandingRover()/2 METHOD ADD void testLandingRover()/2 METHOD
TestCreationAction 1639668396036 MarsRoverTest.java RENAME testLandingRover()/2=>void testRover() METHOD RENAME testLandingRover()/2=>void testRover() METHOD
TestCreationAction 1639668397047 MarsRoverTest.java RENAME testRover()=>void testRiRover() METHOD RENAME testRover()=>void testRiRover() METHOD
TestCreationAction 1639668398554 MarsRoverTest.java RENAME testRiRover()=>void testRightRover() METHOD RENAME testRiRover()=>void testRightRover() METHOD
TestCreationAction 1639668446742 MarsRoverTest.java CHANGE MarsRoverTest.java CLASS CHANGE MarsRoverTest.java CLASS
EditAction 1639668446810 MarsRoverTest.java 961 3 12 3
EditAction 1639668447252 MarsRoverTest.java 961 3 12 3
TestPassAction 1639668447675 mra.java OK
CodeEditingAction 1639668835279 MarsRover.java CHANGE MarsRover.java CLASS
EditAction 1639668835279 MarsRover.java 3091 3 8 0
EditAction 1639668835348 MarsRover.java 3091 3 8 0
EditAction 1639668835826 MarsRover.java 3091 3 8 0
TestPassAction 1639668836208 mra.java OK
TestEditingAction 1639668844570 MarsRoverTest.java CHANGE void testRightRover() METHOD CHANGE void testRightRover() METHOD
TestEditingAction 1639668847355 MarsRoverTest.java CHANGE MarsRoverTest.java CLASS CHANGE MarsRoverTest.java CLASS
EditAction 1639668847422 MarsRoverTest.java 972 3 12 3
EditAction 1639668847753 MarsRoverTest.java 972 3 12 3
TestFailureAction 1639668848285 mra.java FAIL
CodeEditingAction 1639668872398 MarsRover.java CHANGE MarsRover.java CLASS
EditAction 1639668872398 MarsRover.java 3091 3 8 0
EditAction 1639668872474 MarsRover.java 3091 3 8 0
EditAction 1639668872854 MarsRover.java 3091 3 8 0
TestPassAction 1639668873341 mra.java OK
TestCreationAction 1639669509865 MarsRoverTest.java ADD void testRightRover()/2 METHOD ADD void testRightRover()/2 METHOD
TestCreationAction 1639669513874 MarsRoverTest.java RENAME testRightRover()/2=>void testRover() METHOD RENAME testRightRover()/2=>void testRover() METHOD
TestCreationAction 1639669527894 MarsRoverTest.java RENAME testRover()=>void testForRover() METHOD RENAME testRover()=>void testForRover() METHOD
TestCreationAction 1639669529401 MarsRoverTest.java RENAME testForRover()=>void testForwardRover() METHOD RENAME testForRover()=>void testForwardRover() METHOD
CodeEditingAction 1639669557528 MarsRover.java CHANGE MarsRover.java CLASS
EditAction 1639669557529 MarsRover.java 3109 3 8 0
TestEditingAction 1639669558470 MarsRoverTest.java CHANGE MarsRoverTest.java CLASS CHANGE MarsRoverTest.java CLASS
EditAction 1639669558512 MarsRover.java 3109 3 8 0
EditAction 1639669558515 MarsRoverTest.java 1231 4 16 4
EditAction 1639669559171 MarsRover.java 3109 3 8 0
EditAction 1639669559176 MarsRoverTest.java 1231 4 16 4
TestFailureAction 1639669559402 mra.java FAIL
CodeEditingAction 1639669611351 MarsRover.java ADD void StateRover() METHOD
CodeEditingAction 1639669613860 MarsRover.java RENAME StateRover()=>void stateRover() METHOD
CodeEditingAction 1639669638406 MarsRover.java CHANGE String stateRover() METHOD
CodeEditingAction 1639670518351 MarsRover.java CHANGE MarsRover.java CLASS
EditAction 1639670518352 MarsRover.java 3801 4 12 0
TestEditingAction 1639670518970 MarsRoverTest.java CHANGE MarsRoverTest.java CLASS CHANGE MarsRoverTest.java CLASS
EditAction 1639670519016 MarsRover.java 3801 4 12 0
EditAction 1639670519020 MarsRoverTest.java 1234 4 16 4
EditAction 1639670519690 MarsRover.java 3801 4 12 0
EditAction 1639670519695 MarsRoverTest.java 1234 4 16 4
TestFailureAction 1639670519915 mra.java FAIL
CodeEditingAction 1639670584096 MarsRover.java CHANGE Stri stateRover() METHOD
CodeEditingAction 1639670585103 MarsRover.java CHANGE void stateRover() METHOD
CodeEditingAction 1639670593666 MarsRover.java CHANGE MarsRover.java CLASS
EditAction 1639670593747 MarsRover.java 3811 4 11 0
EditAction 1639670594141 MarsRover.java 3811 4 11 0
TestFailureAction 1639670594627 mra.java FAIL
CodeEditingAction 1639670629367 MarsRover.java CHANGE MarsRover.java CLASS
EditAction 1639670629450 MarsRover.java 3837 4 12 0
EditAction 1639670629791 MarsRover.java 3837 4 12 0
TestFailureAction 1639670630324 mra.java FAIL
CodeEditingAction 1639670650840 MarsRover.java CHANGE MarsRover.java CLASS
EditAction 1639670650913 MarsRover.java 3839 4 12 0
EditAction 1639670651301 MarsRover.java 3839 4 12 0
TestFailureAction 1639670651782 mra.java FAIL
CodeEditingAction 1639670722805 MarsRover.java ADD void stateRover FIELD
CodeEditingAction 1639670722805 MarsRover.java ADD void t() METHOD
CodeEditingAction 1639670726315 MarsRover.java RENAME t()=>void throwa() METHOD
CodeEditingAction 1639670733828 MarsRover.java RENAME throwa()=>void MarsRoverException() METHOD
CodeEditingAction 1639670742350 MarsRover.java ADD void stateRover() METHOD
CodeEditingAction 1639670749352 MarsRover.java CHANGE MarsRover.java CLASS
EditAction 1639670749446 MarsRover.java 3865 4 12 0
EditAction 1639670749790 MarsRover.java 3865 4 12 0
TestFailureAction 1639670750395 mra.java FAIL
CodeEditingAction 1639670834869 MarsRover.java CHANGE MarsRover.java CLASS
EditAction 1639670834869 MarsRover.java 3865 4 12 0
EditAction 1639670834946 MarsRover.java 3865 4 12 0
EditAction 1639670835383 MarsRover.java 3865 4 12 0
TestFailureAction 1639670835829 mra.java FAIL
CodeEditingAction 1639670869201 MarsRover.java CHANGE MarsRover.java CLASS
EditAction 1639670869286 MarsRover.java 4047 4 13 0
EditAction 1639670869629 MarsRover.java 4047 4 13 0
TestFailureAction 1639670870027 mra.java FAIL
TestFailureAction 1639670882676 mra.java FAIL
CodeEditingAction 1639670989820 MarsRover.java CHANGE MarsRover.java CLASS
EditAction 1639670989900 MarsRover.java 3843 4 14 0
EditAction 1639670990246 MarsRover.java 3843 4 14 0
TestFailureAction 1639670990649 mra.java FAIL
CodeEditingAction 1639671039003 MarsRover.java CHANGE MarsRover.java CLASS
EditAction 1639671039094 MarsRover.java 3884 4 14 0
EditAction 1639671039447 MarsRover.java 3884 4 14 0
TestFailureAction 1639671039792 mra.java FAIL
CodeEditingAction 1639671221489 MarsRover.java CHANGE MarsRover.java CLASS
EditAction 1639671221566 MarsRover.java 3877 4 14 0
EditAction 1639671221959 MarsRover.java 3877 4 14 0
TestFailureAction 1639671222312 mra.java FAIL
CodeEditingAction 1639671254616 MarsRover.java CHANGE MarsRover.java CLASS
EditAction 1639671254686 MarsRover.java 3886 4 14 0
EditAction 1639671255024 MarsRover.java 3886 4 14 0
TestFailureAction 1639671255594 mra.java FAIL
CodeEditingAction 1639671310814 MarsRover.java CHANGE MarsRover.java CLASS
TestEditingAction 1639671310825 MarsRoverTest.java CHANGE MarsRoverTest.java CLASS CHANGE MarsRoverTest.java CLASS
EditAction 1639671310904 MarsRover.java 3887 4 14 0
EditAction 1639671310908 MarsRoverTest.java 1235 4 16 4
EditAction 1639671311273 MarsRover.java 3887 4 14 0
EditAction 1639671311278 MarsRoverTest.java 1235 4 16 4
TestFailureAction 1639671311788 mra.java FAIL
CodeEditingAction 1639671394830 MarsRover.java CHANGE MarsRover.java CLASS
EditAction 1639671394908 MarsRover.java 3831 4 14 0
EditAction 1639671395300 MarsRover.java 3831 4 14 0
TestFailureAction 1639671395773 mra.java FAIL
CodeEditingAction 1639671443075 MarsRover.java CHANGE MarsRover.java CLASS
EditAction 1639671443076 MarsRover.java 3783 4 14 0
EditAction 1639671443152 MarsRover.java 3783 4 14 0
EditAction 1639671443619 MarsRover.java 3783 4 14 0
TestFailureAction 1639671444040 mra.java FAIL
CodeEditingAction 1639671563028 MarsRover.java CHANGE MarsRover.java CLASS
EditAction 1639671563110 MarsRover.java 3785 4 14 0
EditAction 1639671563496 MarsRover.java 3785 4 14 0
TestFailureAction 1639671563997 mra.java FAIL
CodeEditingAction 1639671591976 MarsRover.java CHANGE MarsRover.java CLASS
EditAction 1639671592053 MarsRover.java 3812 4 14 0
EditAction 1639671592440 MarsRover.java 3812 4 14 0
TestFailureAction 1639671592929 mra.java FAIL
CodeEditingAction 1639671605637 MarsRover.java CHANGE MarsRover.java CLASS
EditAction 1639671605720 MarsRover.java 3762 4 14 0
EditAction 1639671606062 MarsRover.java 3762 4 14 0
TestFailureAction 1639671606594 mra.java FAIL
CodeEditingAction 1639671747295 MarsRover.java CHANGE MarsRover.java CLASS
EditAction 1639671747377 MarsRover.java 3761 4 14 0
EditAction 1639671747727 MarsRover.java 3761 4 14 0
TestFailureAction 1639671748244 mra.java FAIL
CodeEditingAction 1639671778531 MarsRover.java CHANGE MarsRover.java CLASS
EditAction 1639671778532 MarsRover.java 3761 4 14 0
EditAction 1639671778605 MarsRover.java 3761 4 14 0
EditAction 1639671778947 MarsRover.java 3761 4 14 0
TestPassAction 1639671779490 mra.java OK
CodeEditingAction 1639671800038 MarsRover.java CHANGE MarsRover.java CLASS
EditAction 1639671800112 MarsRover.java 3773 4 14 0
EditAction 1639671800500 MarsRover.java 3773 4 14 0
TestPassAction 1639671801004 mra.java OK
